testing/testCases.vcd
$date
	Thu Dec  3 16:11:59 2020
$end
$version
	Icarus Verilog
$end
$timescale
	1s
$end
$scope module Testbench $end
$scope module uut $end
$var wire 1 ! clk $end
$var wire 1 " halt $end
$var wire 16 # instr [15:0] $end
$var wire 16 $ regfile_rdValue [15:0] $end
$var wire 1 % reset $end
$var wire 1 & shouldBrJmp $end
$var wire 16 ' sxi [15:0] $end
$var wire 16 ( ps1_regfile_rsValue_eff [15:0] $end
$var wire 16 ) ps1_regfile_rdValue_eff [15:0] $end
$var wire 16 * pc_eff [15:0] $end
$var wire 16 + brJmpTarget [15:0] $end
$var wire 16 , aluOut [15:0] $end
$var reg 16 - pc [15:0] $end
$var reg 1 . ps0_halt $end
$var reg 1 / ps2_bubble $end
$var reg 16 0 ps2_wbValue [15:0] $end
$var reg 1 1 psr01_halt $end
$var reg 16 2 psr01_ir [15:0] $end
$var reg 4 3 psr12_aluOp [3:0] $end
$var reg 16 4 psr12_branchTarget [15:0] $end
$var reg 1 5 psr12_brf $end
$var reg 1 6 psr12_brt $end
$var reg 1 7 psr12_halt $end
$var reg 1 8 psr12_jumpr $end
$var reg 1 9 psr12_memWrite $end
$var reg 4 : psr12_rdIndex [3:0] $end
$var reg 16 ; psr12_rdValue [15:0] $end
$var reg 4 < psr12_rsIndex [3:0] $end
$var reg 16 = psr12_rsValue [15:0] $end
$var reg 2 > psr12_wbSource [1:0] $end
$var reg 1 ? psr12_writeBack $end
$var reg 1 @ psr23_halt $end
$var reg 4 A psr23_wbIndex [3:0] $end
$var reg 16 B psr23_wbValue [15:0] $end
$var reg 1 C psr23_writeBack $end
$scope function is2WordFrmt $end
$var reg 16 D instr [15:0] $end
$var reg 1 E is2WordFrmt $end
$upscope $end
$scope function isBrf $end
$var reg 16 F instr [15:0] $end
$var reg 1 G isBrf $end
$upscope $end
$scope function isBrt $end
$var reg 16 H instr [15:0] $end
$var reg 1 I isBrt $end
$upscope $end
$scope function isCopy $end
$var reg 16 J instr [15:0] $end
$var reg 1 K isCopy $end
$upscope $end
$scope function isJumpr $end
$var reg 16 L instr [15:0] $end
$var reg 1 M isJumpr $end
$upscope $end
$scope function isLex $end
$var reg 16 N instr [15:0] $end
$var reg 1 O isLex $end
$upscope $end
$scope function isLhi $end
$var reg 16 P instr [15:0] $end
$var reg 1 Q isLhi $end
$upscope $end
$scope function isLoad $end
$var reg 16 R instr [15:0] $end
$var reg 1 S isLoad $end
$upscope $end
$scope function isQat $end
$var reg 16 T instr [15:0] $end
$var reg 1 U isQat $end
$upscope $end
$scope function isStore $end
$var reg 16 V instr [15:0] $end
$var reg 1 W isStore $end
$upscope $end
$scope function isSys $end
$var reg 16 X instr [15:0] $end
$var reg 1 Y isSys $end
$upscope $end
$scope function isWriteBack $end
$var reg 3 Z f0Op [2:0] $end
$var reg 16 [ instr [15:0] $end
$var reg 1 \ isWriteBack $end
$upscope $end
$scope function usesALU $end
$var reg 16 ] instr [15:0] $end
$var reg 1 ^ usesALU $end
$upscope $end
$scope module alu $end
$var wire 16 _ a [15:0] $end
$var wire 16 ` b [15:0] $end
$var wire 4 a op [3:0] $end
$var wire 16 b i2fout [15:0] $end
$var wire 1 c fsltout $end
$var wire 16 d frecipout [15:0] $end
$var wire 16 e fnegout [15:0] $end
$var wire 16 f fmulout [15:0] $end
$var wire 16 g faddout [15:0] $end
$var wire 16 h f2iout [15:0] $end
$var reg 16 i out [15:0] $end
$scope module myf2i $end
$var wire 16 j f [15:0] $end
$var wire 16 k ui [15:0] $end
$var wire 1 l tiny $end
$var wire 16 m result [15:0] $end
$var wire 16 n i [15:0] $end
$var wire 1 o big $end
$scope module m0 $end
$var wire 16 p a [15:0] $end
$var wire 16 q b [15:0] $end
$var wire 1 r torf $end
$var wire 1 l result $end
$upscope $end
$scope module m1 $end
$var wire 16 s a [15:0] $end
$var wire 16 t b [15:0] $end
$var wire 1 u torf $end
$var wire 1 o result $end
$upscope $end
$upscope $end
$scope module myfadd $end
$var wire 16 v a [15:0] $end
$var wire 16 w b [15:0] $end
$var wire 1 x eqsgn $end
$var wire 8 y texp [7:0] $end
$var wire 8 z tbman [7:0] $end
$var wire 8 { taman [7:0] $end
$var wire 1 | ssign $end
$var wire 9 } sman [8:0] $end
$var wire 5 ~ slead [4:0] $end
$var wire 9 !" sfrac [8:0] $end
$var wire 9 "" sexp [8:0] $end
$var wire 16 #" s [15:0] $end
$var wire 16 $" result [15:0] $end
$var wire 16 %" r [15:0] $end
$var wire 1 &" amgt $end
$var wire 1 '" aegt $end
$scope module m0 $end
$var wire 16 (" s [15:0] $end
$var wire 5 )" t [4:0] $end
$var wire 8 *" s8 [7:0] $end
$var wire 4 +" s4 [3:0] $end
$var wire 2 ," s2 [1:0] $end
$var wire 5 -" d [4:0] $end
$upscope $end
$upscope $end
$scope module myfmul $end
$var wire 16 ." a [15:0] $end
$var wire 16 /" b [15:0] $end
$var wire 1 0" s $end
$var wire 16 1" result [15:0] $end
$var wire 16 2" r [15:0] $end
$var wire 16 3" m [15:0] $end
$var wire 8 4" e [7:0] $end
$upscope $end
$scope module myfneg $end
$var wire 16 5" f [15:0] $end
$var wire 16 6" result [15:0] $end
$upscope $end
$scope module myfrecip $end
$var wire 16 7" a [15:0] $end
$var wire 16 8" result [15:0] $end
$var wire 16 9" r [15:0] $end
$upscope $end
$scope module myfslt $end
$var wire 16 :" a [15:0] $end
$var wire 16 ;" b [15:0] $end
$var wire 1 <" torf $end
$var wire 1 c result $end
$upscope $end
$scope module myi2f $end
$var wire 16 =" i [15:0] $end
$var wire 16 >" pos [15:0] $end
$var wire 5 ?" lead [4:0] $end
$var wire 16 @" f [15:0] $end
$scope module m0 $end
$var wire 16 A" s [15:0] $end
$var wire 5 B" t [4:0] $end
$var wire 8 C" s8 [7:0] $end
$var wire 4 D" s4 [3:0] $end
$var wire 2 E" s2 [1:0] $end
$var wire 5 F" d [4:0] $end
$upscope $end
$upscope $end
$upscope $end
$upscope $end
$upscope $end
$enddefinitions $end
#0
$dumpvars
bx F"
bx E"
bx D"
bx C"
b0xxxx B"
bx A"
bx @"
bx ?"
bx >"
bx ="
x<"
bx ;"
bx :"
bx 9"
bx 8"
bx 7"
bx 6"
bx 5"
bx 4"
bx 3"
bx 2"
bx 1"
x0"
bx /"
bx ."
bx -"
bx ,"
bx +"
bx *"
b0xxxx )"
bx0000000 ("
x'"
x&"
bx %"
bx $"
bx #"
bx ""
bx !"
bx ~
bx }
x|
bx {
bx z
bx y
xx
bx w
bx v
xu
bx t
b100011011111111 s
xr
b1100011100000000 q
bx p
xo
bx n
bx m
xl
bx k
bx j
bx i
bx h
bx g
bx f
bx e
bx d
xc
bx b
bx a
bx `
bx _
x^
bx ]
x\
bx [
bx Z
xY
bx X
xW
bx V
xU
bx T
xS
bx R
xQ
bx P
xO
bx N
xM
bx L
xK
bx J
xI
bx H
xG
bx F
xE
bx D
xC
bx B
bx A
x@
x?
bx >
bx =
bx <
bx ;
bx :
x9
x8
x7
x6
x5
bx 4
bx 3
bx 2
x1
bx 0
x/
x.
bx -
bx ,
bx +
bx *
bx )
bx (
bx '
x&
0%
bx $
bx #
x"
0!
$end
#10
b1 ""
b100000000 !"
b10 ,"
b1000 +"
b0 E"
b10000000 *"
b0 )"
b0 D"
b0 h
b0 m
0l
b0 ~
b0 -"
0c
b0 n
0o
0&
0r
b1000000000000000 ("
b100000000 }
b10000000 #"
b0 C"
b1111 B"
0<"
0u
0&"
b10000000 {
b0 f
b0 1"
b10000 ?"
b10000 F"
b0 )
b0 (
b10000000 z
b10000001 4"
b0 k
b0 y
1x
0|
b0 g
b0 $"
00"
b0 2"
b1000000000000000 e
b1000000000000000 6"
b111111100000000 d
b111111100000000 8"
b1111111111111111 0
b1000001000000100 #
b0 *
0"
0'"
b100000000000000 3"
b0 +
b0 %"
b111111100000000 9"
b0 >"
b0 A"
b0 b
b0 @"
b1111111111111111 ,
b1111111111111111 i
b0 '
b0 $
b0 -
0.
1@
b0 B
b0 A
0C
17
08
06
05
b0 4
b0 >
0?
09
b0 3
b0 a
b0 =
b0 `
b0 w
b0 /"
b0 ;"
b0 ;
b0 _
b0 j
b0 p
b0 t
b0 v
b0 ."
b0 5"
b0 7"
b0 :"
b0 ="
b0 <
b0 :
11
b0 2
1%
#20
0%
#30
b100 '
b10001100000000 #
b1 *
b0 0
01
b1000001000000100 2
b1 -
b10 >
0/
0Y
b1000001000000100 X
0E
b1000001000000100 D
0M
b0 L
0I
b0 H
0G
b0 F
0K
b0 J
0S
b0 R
0^
b0 ]
0\
b0 Z
b0 [
0W
b0 V
0Q
b0 P
0O
b0 N
1!
#40
0!
#50
b1 E"
b1101 B"
b100 D"
b10000010 *"
b10000010 #"
b100 )
b100 C"
b1000001000000000 ("
b100000100 !"
b100000100 }
b1101 ?"
b1101 F"
1&"
b10000100 {
b100 g
b100 $"
b1000000000000100 e
b1000000000000100 6"
b111111011111000 d
b111111011111000 8"
b100000010000000 b
b100000010000000 @"
b101 +
b100 %"
b100001000000000 3"
b111111011111000 9"
b100 >"
b100 A"
b1111111111111011 ,
b1111111111111011 i
b100 0
b0 '
b0 #
b10 *
07
b101 4
1?
b100 ;
b100 _
b100 j
b100 p
b100 t
b100 v
b100 ."
b100 5"
b100 7"
b100 :"
b100 ="
b100 <
b1 :
b10001100000000 2
b10 -
b1000001000000100 L
b1000001000000100 H
b1000001000000100 F
b1000001000000100 J
b1000001000000100 R
b1000001000000100 ]
1\
b1000001000000100 [
b1000001000000100 V
1O
b1000001000000100 N
b10001100000000 X
b10001100000000 D
1!
#60
0!
#70
b0 )
b1000001000000001 #
1&
b100 *
b100 +
1.
11
b0 2
b11 -
18
b10 4
0?
b0 <
0@
b100 B
b1 A
1C
1Y
b0 X
b0 D
1M
b10001100000000 L
b10001100000000 H
b10001100000000 F
b10001100000000 J
b10001100000000 R
b10001100000000 ]
0\
b11 Z
b10001100000000 [
b10001100000000 V
b10001100000000 P
0O
b10001100000000 N
1!
#80
0!
#90
b0 E"
b1111 B"
b0 D"
b10000000 *"
b10000000 #"
b0 C"
b1000000000000000 ("
b100000000 !"
b100000000 }
b10000 ?"
b10000 F"
b100 )
b100 (
b1000010000000100 #
b101 *
0&"
b10000000 {
b0 g
b0 $"
b1000000000000000 e
b1000000000000000 6"
b111111100000000 d
b111111100000000 8"
b0 b
b0 @"
0&
b11 +
b0 %"
b100000000000000 3"
b111111100000000 9"
b0 >"
b0 A"
b1111111111111111 ,
b1111111111111111 i
b0 0
b1 '
b100 $
1/
0C
17
08
b11 4
b0 ;
b0 _
b0 j
b0 p
b0 t
b0 v
b0 ."
b0 5"
b0 7"
b0 :"
b0 ="
b0 :
0.
01
b1000001000000001 2
b101 -
0M
b0 L
b0 H
b0 F
b0 J
b0 R
b0 ]
b0 Z
b0 [
b0 V
b0 P
b0 N
0Y
b1000001000000001 X
b1000001000000001 D
1!
#100
0!
#110
b1 E"
b1 D"
b10000010 *"
b10000010 #"
1c
b1 C"
b0 )
b0 (
1<"
b1000001010000000 ("
b100000101 !"
b100000101 }
b100000010000101 f
b100000010000101 1"
b1111 ?"
b1111 F"
b10000100 z
0&"
b10000001 {
b10000010 g
b10000010 $"
b100000010000101 2"
b1000000000000001 e
b1000000000000001 6"
b111111011111110 d
b111111011111110 8"
b11111110000000 b
b11111110000000 @"
b100 '
b0 $
b10001010110010 #
b110 *
b110 +
b10000010 %"
b100001010000100 3"
b111111011111110 9"
b1 >"
b1 A"
b1111111111111110 ,
b1111111111111110 i
b1 0
b1000010000000100 2
b110 -
07
b110 4
1?
b100 =
b100 `
b100 w
b100 /"
b100 ;"
b1 ;
b1 _
b1 j
b1 p
b1 t
b1 v
b1 ."
b1 5"
b1 7"
b1 :"
b1 ="
b1 <
b1 :
0/
b1000010000000100 X
b1000010000000100 D
b1000001000000001 L
b1000001000000001 H
b1000001000000001 F
b1000001000000001 J
b1000001000000001 R
b1000001000000001 ]
1\
b1000001000000001 [
b1000001000000001 V
1O
b1000001000000001 N
1!
#120
0!
#130
b100000010000000 b
b100000010000000 @"
b1101 ?"
b1101 F"
b1101 B"
b100 D"
0c
b100 C"
b100 g
b100 $"
b0 f
b0 1"
b1000001000000000 ("
b100000100 !"
b100000100 }
0<"
b1 )
b100 (
1&"
b10000000 z
b100 %"
b0 2"
b10000100 {
b1000000000000100 e
b1000000000000100 6"
b111111011111000 d
b111111011111000 8"
b1010 +
b100001000000000 3"
b111111011111000 9"
b100 >"
b100 A"
b1111111111111011 ,
b1111111111111011 i
b100 0
b1111111110110010 '
b100 $
b1000000000010000 #
b111 *
b1 B
1C
b1010 4
b0 =
b0 `
b0 w
b0 /"
b0 ;"
b100 ;
b100 _
b100 j
b100 p
b100 t
b100 v
b100 ."
b100 5"
b100 7"
b100 :"
b100 ="
b100 <
b10 :
b10001010110010 2
b111 -
b1000010000000100 L
b1000010000000100 H
b1000010000000100 F
b1000010000000100 J
b1000010000000100 R
b1000010000000100 ]
b1000010000000100 [
b1000010000000100 V
b1000010000000100 N
b10001010110010 X
b10001010110010 D
1!
#140
0!
#150
b1111 ?"
b1111 F"
b1111 B"
b1 D"
1c
b0 (
b1 C"
b100000010000101 f
b100000010000101 1"
1<"
b1000001010000000 ("
b100000101 !"
b100000101 }
b10000010 g
b10000010 $"
b11111110000000 b
b11111110000000 @"
0&"
b10000100 z
b100000010000101 2"
b10000001 {
b10000010 %"
b1000000000000001 e
b1000000000000001 6"
b111111011111110 d
b111111011111110 8"
b0 )
b10000 '
b10000011000001 #
b1000 *
b1111111110111001 +
b100001010000100 3"
b111111011111110 9"
b1 >"
b1 A"
b10000 ,
b10000 i
b10000 0
b1000000000010000 2
b1000 -
b1111111110111001 4
b0 >
b1011 3
b1011 a
b100 =
b100 `
b100 w
b100 /"
b100 ;"
b1 ;
b1 _
b1 j
b1 p
b1 t
b1 v
b1 ."
b1 5"
b1 7"
b1 :"
b1 ="
b10 <
b1 :
b100 B
b10 A
b0 $
b1000000000010000 X
b1000000000010000 D
b10001010110010 L
b10001010110010 H
b10001010110010 F
1^
b10001010110010 ]
b10 Z
b10001010110010 [
b10001010110010 V
b10001010110010 P
0O
b10001010110010 N
1!
#160
0!
#170
b100000110000000 b
b100000110000000 @"
b1011 ?"
b1011 F"
b1011 B"
b10001000 *"
b10001000 #"
0c
b10000 C"
b10000 g
b10000 $"
b0 f
b0 1"
b1000100000000000 ("
b100010000 !"
b100010000 }
0<"
b10000 (
b10000000 z
b10000 %"
b0 2"
1&"
b10010000 {
b1000000000010000 e
b1000000000010000 6"
b111111011100011 d
b111111011100011 8"
b10000 )
b11000 +
b100100000000000 3"
b111111011100011 9"
b10000 >"
b10000 A"
b100000110000000 ,
b100000110000000 i
b1111111111000001 '
b1010000000000001 #
b1001 *
b10000 B
b1 A
b11000 4
b10 >
b1 3
b1 a
b0 =
b0 `
b0 w
b0 /"
b0 ;"
b10000 ;
b10000 _
b10000 j
b10000 p
b10000 t
b10000 v
b10000 ."
b10000 5"
b10000 7"
b10000 :"
b10000 ="
b0 <
b0 :
b10000011000001 2
b1001 -
b1000000000010000 L
b1000000000010000 H
b1000000000010000 F
b1000000000010000 J
b1000000000010000 R
0^
b1000000000010000 ]
b0 Z
b1000000000010000 [
b1000000000010000 V
1O
b1000000000010000 N
b10000011000001 X
b10000011000001 D
1!
#180
0!
#190
b1001 +"
b10010000 *"
b10010000 #"
b1001000000000000 ("
b100100000 !"
b100100000 }
b10010000 g
b10010000 $"
b100000010100010 f
b100000010100010 1"
0&"
b10010000 z
b10010000 %"
b100000010100010 2"
b0 )
b1 '
b0 #
b1010 *
b1111111111001010 +
b101000100000000 3"
b0 ,
b0 i
b0 0
b1010000000000001 2
b1010 -
b1111111111001010 4
b0 >
b1100 3
b1100 a
b10000 =
b10000 `
b10000 w
b10000 /"
b10000 ;"
b1 <
b0 A
b1010000000000001 X
b1010000000000001 D
b10000011000001 L
b10000011000001 H
b10000011000001 F
1^
b10000011000001 ]
b10 Z
b10000011000001 [
b10000011000001 V
b10000011000001 P
0O
b10000011000001 N
1!
#200
0!
#210
b0 E"
b1000 +"
b0 D"
b1111 B"
b10001000 *"
b10001000 #"
1c
1&
b0 C"
b0 (
b1000100000000000 ("
b100010000 !"
b100010000 }
b0 f
b0 1"
1<"
b10000 ?"
b10000 F"
b10000000 {
b10000 g
b10000 $"
b0 2"
b1000000000000000 e
b1000000000000000 6"
b111111100000000 d
b111111100000000 8"
b0 b
b0 @"
b1011 +
b10000 %"
b100100000000000 3"
b111111100000000 9"
b0 >"
b0 A"
b1111111111111111 ,
b1111111111111111 i
b0 '
b1000010011111100 #
b1011 *
b10000 $
b0 B
15
b1011 4
b10 >
0?
b0 3
b0 a
b0 ;
b0 _
b0 j
b0 p
b0 t
b0 v
b0 ."
b0 5"
b0 7"
b0 :"
b0 ="
1.
11
b0 2
b1011 -
b1010000000000001 L
b1010000000000001 H
1G
b1010000000000001 F
b1010000000000001 J
b1010000000000001 R
0^
b1010000000000001 ]
0\
b1010000000000001 [
b1010000000000001 V
b1010000000000001 P
b1010000000000001 N
1Y
b0 X
b0 D
1!
#220
0!
#230
b10000000 *"
b10000000 #"
0c
b100 )
b1000000000000000 ("
b100000000 !"
b100000000 }
0<"
b10000000 z
b0 g
b0 $"
b10001010110010 #
b1100 *
b1111111111111100 '
b0 %"
b100000000000000 3"
0&
0.
01
b1000010011111100 2
b1100 -
17
05
b0 =
b0 `
b0 w
b0 /"
b0 ;"
b0 <
1/
0C
b100 $
0Y
b1000010011111100 X
b1000010011111100 D
b0 L
b0 H
0G
b0 F
b0 J
b0 R
b0 ]
b0 Z
b0 [
b0 V
b0 P
b0 N
1!
#240
0!
#250
b1 ,"
b1 E"
b111 +"
b0 h
b0 m
1l
b0 n
b100 D"
b1111110 *"
b1 )"
1c
1r
0o
b1 ~
b1 -"
b1111111111111100 #"
1<"
b100 C"
b1101 B"
0u
b0 z
1|
b111111000000000 ("
b111111000 !"
b11111100 }
b1101 ?"
b1101 F"
b10000 )
b1111111111111100 (
b11111111 ""
b11111111 y
1&"
b11111100 {
0x
b1111111111111100 g
b1111111111111100 $"
10"
b111111111111100 e
b111111111111100 6"
b1111111100000010 d
b1111111100000010 8"
b1000 +
1'"
b1111111111111100 %"
b111111000000000 3"
b10000000 4"
b1111111100000010 9"
b100 >"
b100 A"
b1100000010000000 b
b1100000010000000 @"
b1 ,
b1 i
b1111111111111100 0
b1111111110110010 '
b10000 $
b1000000000000001 #
b1101 *
0/
07
b1000 4
1?
b1111 3
b1111 a
b1111111111111100 ;
b1111111111111100 _
b1111111111111100 j
b1111111111111100 p
b1111111111111100 t
b1111111111111100 v
b1111111111111100 ."
b1111111111111100 5"
b1111111111111100 7"
b1111111111111100 :"
b1111111111111100 ="
b1100 <
b10 :
b10001010110010 2
b1101 -
b1000010011111100 L
b1000010011111100 H
b1000010011111100 F
b1000010011111100 J
b1000010011111100 R
b1000010011111100 ]
1\
b1000010011111100 [
b1000010011111100 V
1O
b1000010011111100 N
b10001010110010 X
b10001010110010 D
1!
#260
0!
#270
b1 E"
b1111111111111100 g
b1111111111111100 $"
b1 D"
0l
b1111111111111100 %"
0c
b1011 ?"
b1011 F"
0r
b1111111111111100 #"
0<"
b10000 C"
b1011 B"
b0 (
b1100000010001101 f
b1100000010001101 1"
b1100000010001101 2"
b11111100 z
0&"
b0 {
1|
b1000000000010000 e
b1000000000010000 6"
b111111011100011 d
b111111011100011 8"
b0 )
b1 '
b0 $
b10000011000001 #
b1110 *
b1111111110111111 +
0'"
b1000110111000000 3"
b10000001 4"
b111111011100011 9"
b10000 >"
b10000 A"
b100000110000000 b
b100000110000000 @"
b0 ,
b0 i
b0 0
b1000000000000001 2
b1110 -
b1111111110111111 4
b0 >
b1011 3
b1011 a
b1111111111111100 =
b1111111111111100 `
b1111111111111100 w
b1111111111111100 /"
b1111111111111100 ;"
b10000 ;
b10000 _
b10000 j
b10000 p
b10000 t
b10000 v
b10000 ."
b10000 5"
b10000 7"
b10000 :"
b10000 ="
b10 <
b1 :
b1111111111111100 B
b10 A
1C
b1000000000000001 X
b1000000000000001 D
b10001010110010 L
b10001010110010 H
b10001010110010 F
1^
b10001010110010 ]
b10 Z
b10001010110010 [
b10001010110010 V
b10001010110010 P
0O
b10001010110010 N
1!
#280
0!
#290
b0 ~
b0 -"
b0 )"
b10 ,"
b1000 +"
b1111 ?"
b1111 F"
b1111 B"
b10000000 *"
b10000000 #"
b1 C"
1&"
b10000001 {
b1000000010000000 ("
b100000001 !"
b100000001 }
b1 g
b1 $"
b0 f
b0 1"
b11111110000000 b
b11111110000000 @"
b1 ""
b0 y
b10000000 z
1x
0|
b1 %"
00"
b0 2"
b1000000000000001 e
b1000000000000001 6"
b111111011111110 d
b111111011111110 8"
b1 )
b0 (
b1111 +
b10000001 4"
b100000010000000 3"
b111111011111110 9"
b1 >"
b1 A"
b1111111111111110 ,
b1111111111111110 i
b1 0
b1111111111000001 '
b1010000000000000 #
b1111 *
b0 B
b1 A
b1111 4
b10 >
b0 3
b0 a
b0 =
b0 `
b0 w
b0 /"
b0 ;"
b1 ;
b1 _
b1 j
b1 p
b1 t
b1 v
b1 ."
b1 5"
b1 7"
b1 :"
b1 ="
b1 <
b0 :
b10000011000001 2
b1111 -
b1000000000000001 L
b1000000000000001 H
b1000000000000001 F
b1000000000000001 J
b1000000000000001 R
0^
b1000000000000001 ]
b0 Z
b1000000000000001 [
b1000000000000001 V
1O
b1000000000000001 N
b10000011000001 X
b10000011000001 D
1!
#300
0!
#310
b1 (
b0 '
b1000001011111011 #
b10000 *
b1111111111010000 +
b1 ,
b1 i
b1010000000000000 2
b10000 -
b1111111111010000 4
b0 >
b1100 3
b1100 a
b1 B
b0 A
b1010000000000000 X
b1010000000000000 D
b10000011000001 L
b10000011000001 H
b10000011000001 F
1^
b10000011000001 ]
b10 Z
b10000011000001 [
b10000011000001 V
b10000011000001 P
0O
b10000011000001 N
1!
#320
0!
#330
b10000001 *"
b10000001 #"
b1000000100000000 ("
b100000010 !"
b100000010 }
b10000001 g
b10000001 $"
b100000010000010 f
b100000010000010 1"
b0 )
b0 (
0&"
b10000001 z
b10000001 %"
b100000010000010 2"
b10000 +
b100000100000001 3"
b1111111111111110 ,
b1111111111111110 i
b1111111111111011 '
b10001000110000 #
b10001 *
b0 $
15
b10000 4
b10 >
0?
b0 3
b0 a
b1 =
b1 `
b1 w
b1 /"
b1 ;"
b0 <
b1000001011111011 2
b10001 -
b1010000000000000 L
b1010000000000000 H
1G
b1010000000000000 F
b1010000000000000 J
b1010000000000000 R
0^
b1010000000000000 ]
0\
b1010000000000000 [
b1010000000000000 V
b1010000000000000 P
b1010000000000000 N
b1000001011111011 X
b1000001011111011 D
1!
#340
0!
#350
b1 ,"
b1 E"
b111 +"
b0 h
b0 m
1l
b0 n
b101 D"
b1111101 *"
b1 )"
1c
b1101 ?"
b1101 F"
1r
0o
b1 ~
b1 -"
b1111111111111011 #"
1<"
b101 C"
b1101 B"
b1 (
b1111111111111011 )
b1111111111111011 g
b1111111111111011 $"
b0 f
b0 1"
0u
1|
b111110110000000 ("
b111110110 !"
b11111011 }
b1111111111111011 %"
b0 2"
b11111111 ""
b11111111 y
b0 z
1&"
b11111011 {
0x
10"
b111111111111011 e
b111111111111011 6"
b1111111100000010 d
b1111111100000010 8"
b110000 '
b1000010000000101 #
b10010 *
b1100 +
1'"
b111110110000000 3"
b10000000 4"
b1111111100000010 9"
b101 >"
b101 A"
b1100000010100000 b
b1100000010100000 @"
b1 ,
b1 i
b1111111111111011 0
b10001000110000 2
b10010 -
05
b1100 4
1?
b1111 3
b1111 a
b0 =
b0 `
b0 w
b0 /"
b0 ;"
b1111111111111011 ;
b1111111111111011 _
b1111111111111011 j
b1111111111111011 p
b1111111111111011 t
b1111111111111011 v
b1111111111111011 ."
b1111111111111011 5"
b1111111111111011 7"
b1111111111111011 :"
b1111111111111011 ="
b1011 <
b1 :
0C
b10001000110000 X
b10001000110000 D
b1000001011111011 L
b1000001011111011 H
0G
b1000001011111011 F
b1000001011111011 J
b1000001011111011 R
b1000001011111011 ]
1\
b0 Z
b1000001011111011 [
b1000001011111011 V
1O
b1000001011111011 N
1!
#360
0!
#370
b1100000001111100 f
b1100000001111100 1"
b0 (
b1100000001111100 2"
b1111111111111100 )
b1000010 +
b111111001111011 3"
b101 ,
b101 i
b101 0
b101 '
b1111111111111100 $
b10001011000010 #
b10011 *
b1111111111111011 B
b1 A
1C
b1000010 4
b0 >
b11 3
b11 a
b1 =
b1 `
b1 w
b1 /"
b1 ;"
b0 <
b1000010000000101 2
b10011 -
b10001000110000 L
b10001000110000 H
b10001000110000 F
1^
b10001000110000 ]
b10 Z
b10001000110000 [
b10001000110000 V
b10001000110000 P
0O
b10001000110000 N
b1000010000000101 X
b1000010000000101 D
1!
#380
0!
#390
b0 ~
b0 -"
b0 )"
b10 ,"
b1 E"
b1000 +"
b101 D"
0l
b10000010 *"
0c
b1101 ?"
b1101 F"
0r
b10000010 #"
0<"
b101 C"
b1101 B"
b101 (
b101 g
b101 $"
b0 f
b0 1"
b1000001010000000 ("
b100000101 !"
b100000101 }
b101 %"
b0 2"
b10000000 z
b1 ""
b0 y
1&"
b10000101 {
1x
0|
00"
b1000000000000101 e
b1000000000000101 6"
b111111011110110 d
b111111011110110 8"
b101 )
b1111111111000010 '
b1111111111111011 $
b1010001000000001 #
b10100 *
b11000 +
0'"
b100001010000000 3"
b10000001 4"
b111111011110110 9"
b101 >"
b101 A"
b100000010100000 b
b100000010100000 @"
b1111111111111010 ,
b1111111111111010 i
b10001011000010 2
b10100 -
b11000 4
b10 >
b0 3
b0 a
b0 =
b0 `
b0 w
b0 /"
b0 ;"
b101 ;
b101 _
b101 j
b101 p
b101 t
b101 v
b101 ."
b101 5"
b101 7"
b101 :"
b101 ="
b101 <
b10 :
b101 B
b10001011000010 X
b10001011000010 D
b1000010000000101 L
b1000010000000101 H
b1000010000000101 F
b1000010000000101 J
b1000010000000101 R
0^
b1000010000000101 ]
b0 Z
b1000010000000101 [
b1000010000000101 V
1O
b1000010000000101 N
1!
#400
0!
#410
b10000101 *"
b10000101 #"
b1000010100000000 ("
b100001010 !"
b100001010 }
b10000101 g
b10000101 $"
b100000010001010 f
b100000010001010 1"
0&"
b10000101 z
b10000101 %"
b100000010001010 2"
b0 (
b0 )
b1111111111010110 +
b100010100011001 3"
b0 ,
b0 i
b0 0
b1 '
b0 #
b10101 *
b101 $
b10 A
b1111111111010110 4
b0 >
b1100 3
b1100 a
b101 =
b101 `
b101 w
b101 /"
b101 ;"
b10 <
b1 :
b1010001000000001 2
b10101 -
b10001011000010 L
b10001011000010 H
b10001011000010 F
1^
b10001011000010 ]
b10 Z
b10001011000010 [
b10001011000010 V
b10001011000010 P
0O
b10001011000010 N
b1010001000000001 X
b1010001000000001 D
1!
#420
0!
#430
b0 E"
b1111 B"
b0 D"
b10000000 *"
b10000000 #"
b1 )
b1 (
1&
b0 C"
b1000000000000000 ("
b100000000 !"
b100000000 }
b0 f
b0 1"
b10000 ?"
b10000 F"
b10000000 z
b10000000 {
b0 g
b0 $"
b0 2"
b1000000000000000 e
b1000000000000000 6"
b111111100000000 d
b111111100000000 8"
b0 b
b0 @"
b0 '
b1 $
b10001000000000 #
b10110 *
b10110 +
b0 %"
b100000000000000 3"
b111111100000000 9"
b0 >"
b0 A"
b1111111111111111 ,
b1111111111111111 i
1.
11
b0 2
b10110 -
15
b10110 4
b10 >
0?
b0 3
b0 a
b0 =
b0 `
b0 w
b0 /"
b0 ;"
b0 ;
b0 _
b0 j
b0 p
b0 t
b0 v
b0 ."
b0 5"
b0 7"
b0 :"
b0 ="
b1 <
b0 B
b1 A
1Y
b0 X
b0 D
b1010001000000001 L
b1010001000000001 H
1G
b1010001000000001 F
b1010001000000001 J
b1010001000000001 R
0^
b1010001000000001 ]
0\
b1010001000000001 [
b1010001000000001 V
b1010001000000001 P
b1010001000000001 N
1!
#440
0!
#450
b1 E"
b1 D"
b10000001 *"
b10000001 #"
b1 C"
b1000000100000000 ("
b100000010 !"
b100000010 }
b100000010000010 f
b100000010000010 1"
b1111 ?"
b1111 F"
b0 )
b1000010011111111 #
b10111 *
b10000001 z
0&"
b10000001 {
b10000001 g
b10000001 $"
b100000010000010 2"
b1000000000000001 e
b1000000000000001 6"
b111111011111110 d
b111111011111110 8"
b11111110000000 b
b11111110000000 @"
0&
b10000001 %"
b100000100000001 3"
b111111011111110 9"
b1 >"
b1 A"
b1111111111111110 ,
b1111111111111110 i
b1 0
b0 $
1/
0C
17
05
b1 =
b1 `
b1 w
b1 /"
b1 ;"
b1 ;
b1 _
b1 j
b1 p
b1 t
b1 v
b1 ."
b1 5"
b1 7"
b1 :"
b1 ="
b0 <
b0 :
0.
01
b10001000000000 2
b10111 -
b0 L
b0 H
0G
b0 F
b0 J
b0 R
b0 ]
b0 Z
b0 [
b0 V
b0 P
b0 N
0Y
b10001000000000 X
b10001000000000 D
1!
#460
0!
