testing/testCases.vcd
$date
	Thu Dec  3 13:13:56 2020
$end
$version
	Icarus Verilog
$end
$timescale
	1s
$end
$scope module Testbench $end
$scope module uut $end
$var wire 1 ! clk $end
$var wire 1 " halt $end
$var wire 16 # instr [15:0] $end
$var wire 16 $ regfile_rdValue [15:0] $end
$var wire 1 % reset $end
$var wire 1 & shouldBrJmp $end
$var wire 16 ' sxi [15:0] $end
$var wire 16 ( ps1_regfile_rsValue_eff [15:0] $end
$var wire 16 ) ps1_regfile_rdValue_eff [15:0] $end
$var wire 16 * pc_eff [15:0] $end
$var wire 16 + brJmpTarget [15:0] $end
$var wire 16 , aluOut [15:0] $end
$var reg 16 - pc [15:0] $end
$var reg 1 . ps0_halt $end
$var reg 1 / ps2_bubble $end
$var reg 16 0 ps2_wbValue [15:0] $end
$var reg 1 1 psr01_halt $end
$var reg 16 2 psr01_ir [15:0] $end
$var reg 4 3 psr12_aluOp [3:0] $end
$var reg 16 4 psr12_branchTarget [15:0] $end
$var reg 1 5 psr12_brf $end
$var reg 1 6 psr12_brt $end
$var reg 1 7 psr12_halt $end
$var reg 1 8 psr12_jumpr $end
$var reg 1 9 psr12_memWrite $end
$var reg 4 : psr12_rdIndex [3:0] $end
$var reg 16 ; psr12_rdValue [15:0] $end
$var reg 4 < psr12_rsIndex [3:0] $end
$var reg 16 = psr12_rsValue [15:0] $end
$var reg 2 > psr12_wbSource [1:0] $end
$var reg 1 ? psr12_writeBack $end
$var reg 1 @ psr23_halt $end
$var reg 4 A psr23_wbIndex [3:0] $end
$var reg 16 B psr23_wbValue [15:0] $end
$var reg 1 C psr23_writeBack $end
$scope function is2WordFrmt $end
$var reg 16 D instr [15:0] $end
$var reg 1 E is2WordFrmt $end
$upscope $end
$scope function isBrf $end
$var reg 16 F instr [15:0] $end
$var reg 1 G isBrf $end
$upscope $end
$scope function isBrt $end
$var reg 16 H instr [15:0] $end
$var reg 1 I isBrt $end
$upscope $end
$scope function isCopy $end
$var reg 16 J instr [15:0] $end
$var reg 1 K isCopy $end
$upscope $end
$scope function isJumpr $end
$var reg 16 L instr [15:0] $end
$var reg 1 M isJumpr $end
$upscope $end
$scope function isLex $end
$var reg 16 N instr [15:0] $end
$var reg 1 O isLex $end
$upscope $end
$scope function isLhi $end
$var reg 16 P instr [15:0] $end
$var reg 1 Q isLhi $end
$upscope $end
$scope function isLoad $end
$var reg 16 R instr [15:0] $end
$var reg 1 S isLoad $end
$upscope $end
$scope function isStore $end
$var reg 16 T instr [15:0] $end
$var reg 1 U isStore $end
$upscope $end
$scope function isSysOrQat $end
$var reg 16 V instr [15:0] $end
$var reg 1 W isSysOrQat $end
$upscope $end
$scope function isWriteBack $end
$var reg 3 X f0Op [2:0] $end
$var reg 16 Y instr [15:0] $end
$var reg 1 Z isWriteBack $end
$upscope $end
$scope function usesALU $end
$var reg 16 [ instr [15:0] $end
$var reg 1 \ usesALU $end
$upscope $end
$scope module alu $end
$var wire 16 ] a [15:0] $end
$var wire 16 ^ b [15:0] $end
$var wire 4 _ op [3:0] $end
$var wire 16 ` i2fout [15:0] $end
$var wire 1 a fsltout $end
$var wire 16 b frecipout [15:0] $end
$var wire 16 c fnegout [15:0] $end
$var wire 16 d fmulout [15:0] $end
$var wire 16 e faddout [15:0] $end
$var wire 16 f f2iout [15:0] $end
$var reg 16 g out [15:0] $end
$scope module myf2i $end
$var wire 16 h f [15:0] $end
$var wire 16 i ui [15:0] $end
$var wire 1 j tiny $end
$var wire 16 k result [15:0] $end
$var wire 16 l i [15:0] $end
$var wire 1 m big $end
$scope module m0 $end
$var wire 16 n a [15:0] $end
$var wire 16 o b [15:0] $end
$var wire 1 p torf $end
$var wire 1 j result $end
$upscope $end
$scope module m1 $end
$var wire 16 q a [15:0] $end
$var wire 16 r b [15:0] $end
$var wire 1 s torf $end
$var wire 1 m result $end
$upscope $end
$upscope $end
$scope module myfadd $end
$var wire 16 t a [15:0] $end
$var wire 16 u b [15:0] $end
$var wire 1 v eqsgn $end
$var wire 8 w texp [7:0] $end
$var wire 8 x tbman [7:0] $end
$var wire 8 y taman [7:0] $end
$var wire 1 z ssign $end
$var wire 9 { sman [8:0] $end
$var wire 5 | slead [4:0] $end
$var wire 9 } sfrac [8:0] $end
$var wire 9 ~ sexp [8:0] $end
$var wire 16 !" s [15:0] $end
$var wire 16 "" result [15:0] $end
$var wire 16 #" r [15:0] $end
$var wire 1 $" amgt $end
$var wire 1 %" aegt $end
$scope module m0 $end
$var wire 16 &" s [15:0] $end
$var wire 5 '" t [4:0] $end
$var wire 8 (" s8 [7:0] $end
$var wire 4 )" s4 [3:0] $end
$var wire 2 *" s2 [1:0] $end
$var wire 5 +" d [4:0] $end
$upscope $end
$upscope $end
$scope module myfmul $end
$var wire 16 ," a [15:0] $end
$var wire 16 -" b [15:0] $end
$var wire 1 ." s $end
$var wire 16 /" result [15:0] $end
$var wire 16 0" r [15:0] $end
$var wire 16 1" m [15:0] $end
$var wire 8 2" e [7:0] $end
$upscope $end
$scope module myfneg $end
$var wire 16 3" f [15:0] $end
$var wire 16 4" result [15:0] $end
$upscope $end
$scope module myfrecip $end
$var wire 16 5" a [15:0] $end
$var wire 16 6" result [15:0] $end
$var wire 16 7" r [15:0] $end
$upscope $end
$scope module myfslt $end
$var wire 16 8" a [15:0] $end
$var wire 16 9" b [15:0] $end
$var wire 1 :" torf $end
$var wire 1 a result $end
$upscope $end
$scope module myi2f $end
$var wire 16 ;" i [15:0] $end
$var wire 16 <" pos [15:0] $end
$var wire 5 =" lead [4:0] $end
$var wire 16 >" f [15:0] $end
$scope module m0 $end
$var wire 16 ?" s [15:0] $end
$var wire 5 @" t [4:0] $end
$var wire 8 A" s8 [7:0] $end
$var wire 4 B" s4 [3:0] $end
$var wire 2 C" s2 [1:0] $end
$var wire 5 D" d [4:0] $end
$upscope $end
$upscope $end
$upscope $end
$upscope $end
$upscope $end
$enddefinitions $end
#0
$dumpvars
bx D"
bx C"
bx B"
bx A"
b0xxxx @"
bx ?"
bx >"
bx ="
bx <"
bx ;"
x:"
bx 9"
bx 8"
bx 7"
bx 6"
bx 5"
bx 4"
bx 3"
bx 2"
bx 1"
bx 0"
bx /"
x."
bx -"
bx ,"
bx +"
bx *"
bx )"
bx ("
b0xxxx '"
bx0000000 &"
x%"
x$"
bx #"
bx ""
bx !"
bx ~
bx }
bx |
bx {
xz
bx y
bx x
bx w
xv
bx u
bx t
xs
bx r
b100011011111111 q
xp
b1100011100000000 o
bx n
xm
bx l
bx k
xj
bx i
bx h
bx g
bx f
bx e
bx d
bx c
bx b
xa
bx `
bx _
bx ^
bx ]
x\
bx [
xZ
bx Y
bx X
xW
bx V
xU
bx T
xS
bx R
xQ
bx P
xO
bx N
xM
bx L
xK
bx J
xI
bx H
xG
bx F
xE
bx D
xC
bx B
bx A
x@
x?
bx >
bx =
bx <
bx ;
bx :
x9
x8
x7
x6
x5
bx 4
bx 3
bx 2
x1
bx 0
x/
x.
bx -
bx ,
bx +
bx *
bx )
bx (
bx '
x&
0%
bx $
bx #
x"
0!
$end
#10
b1 ~
b100000000 }
b10 *"
b1000 )"
b0 C"
b10000000 ("
b0 '"
b0 B"
b0 f
b0 k
0j
b0 |
b0 +"
0a
b0 l
0m
0&
0p
b1000000000000000 &"
b100000000 {
b10000000 !"
b0 A"
b1111 @"
0:"
0s
0$"
b10000000 y
b0 d
b0 /"
b10000 ="
b10000 D"
b0 )
b0 (
b10000000 x
b10000001 2"
b0 i
b0 w
1v
0z
b0 e
b0 ""
0."
b0 0"
b1000000000000000 c
b1000000000000000 4"
b111111100000000 b
b111111100000000 6"
b1111111111111111 0
b1000001000000100 #
b0 *
0"
0%"
b100000000000000 1"
b0 +
b0 #"
b111111100000000 7"
b0 <"
b0 ?"
b0 `
b0 >"
b1111111111111111 ,
b1111111111111111 g
b0 '
b0 $
b0 -
0.
1@
b0 B
b0 A
0C
17
08
06
05
b0 4
b0 >
0?
09
b0 3
b0 _
b0 =
b0 ^
b0 u
b0 -"
b0 9"
b0 ;
b0 ]
b0 h
b0 n
b0 r
b0 t
b0 ,"
b0 3"
b0 5"
b0 8"
b0 ;"
b0 <
b0 :
11
b0 2
1%
#20
0%
#30
b100 '
b10001100000000 #
b1 *
b0 0
01
b1000001000000100 2
b1 -
b10 >
0/
0W
b1000001000000100 V
0E
b1000001000000100 D
0M
b0 L
0I
b0 H
0G
b0 F
0K
b0 J
0S
b0 R
0\
b0 [
0Z
b0 X
b0 Y
0U
b0 T
0Q
b0 P
0O
b0 N
1!
#40
0!
#50
b1 C"
b1101 @"
b100 B"
b10000010 ("
b10000010 !"
b100 )
b100 A"
b1000001000000000 &"
b100000100 }
b100000100 {
b1101 ="
b1101 D"
1$"
b10000100 y
b100 e
b100 ""
b1000000000000100 c
b1000000000000100 4"
b111111011111000 b
b111111011111000 6"
b100000010000000 `
b100000010000000 >"
b101 +
b100 #"
b100001000000000 1"
b111111011111000 7"
b100 <"
b100 ?"
b1111111111111011 ,
b1111111111111011 g
b100 0
b0 '
b0 #
b10 *
07
b101 4
1?
b100 ;
b100 ]
b100 h
b100 n
b100 r
b100 t
b100 ,"
b100 3"
b100 5"
b100 8"
b100 ;"
b100 <
b1 :
b10001100000000 2
b10 -
b1000001000000100 L
b1000001000000100 H
b1000001000000100 F
b1000001000000100 J
b1000001000000100 R
b1000001000000100 [
1Z
b1000001000000100 Y
b1000001000000100 T
1O
b1000001000000100 N
b10001100000000 V
b10001100000000 D
1!
#60
0!
#70
b0 )
b1000001000000001 #
1&
b100 *
b100 +
1.
11
b0 2
b11 -
18
b10 4
0?
b0 <
0@
b100 B
b1 A
1C
1W
b0 V
b0 D
1M
b10001100000000 L
b10001100000000 H
b10001100000000 F
b10001100000000 J
b10001100000000 R
b10001100000000 [
0Z
b11 X
b10001100000000 Y
b10001100000000 T
b10001100000000 P
0O
b10001100000000 N
1!
#80
0!
#90
b0 C"
b1111 @"
b0 B"
b10000000 ("
b10000000 !"
b0 A"
b1000000000000000 &"
b100000000 }
b100000000 {
b10000 ="
b10000 D"
b100 )
b100 (
b1000010000000100 #
b101 *
0$"
b10000000 y
b0 e
b0 ""
b1000000000000000 c
b1000000000000000 4"
b111111100000000 b
b111111100000000 6"
b0 `
b0 >"
0&
b11 +
b0 #"
b100000000000000 1"
b111111100000000 7"
b0 <"
b0 ?"
b1111111111111111 ,
b1111111111111111 g
b0 0
b1 '
b100 $
1/
0C
17
08
b11 4
b0 ;
b0 ]
b0 h
b0 n
b0 r
b0 t
b0 ,"
b0 3"
b0 5"
b0 8"
b0 ;"
b0 :
0.
01
b1000001000000001 2
b101 -
0M
b0 L
b0 H
b0 F
b0 J
b0 R
b0 [
b0 X
b0 Y
b0 T
b0 P
b0 N
0W
b1000001000000001 V
b1000001000000001 D
1!
#100
0!
#110
b1 C"
b1 B"
b10000010 ("
b10000010 !"
1a
b1 A"
b0 )
b0 (
1:"
b1000001010000000 &"
b100000101 }
b100000101 {
b100000010000101 d
b100000010000101 /"
b1111 ="
b1111 D"
b10000100 x
0$"
b10000001 y
b10000010 e
b10000010 ""
b100000010000101 0"
b1000000000000001 c
b1000000000000001 4"
b111111011111110 b
b111111011111110 6"
b11111110000000 `
b11111110000000 >"
b100 '
b0 $
b10001010110010 #
b110 *
b110 +
b10000010 #"
b100001010000100 1"
b111111011111110 7"
b1 <"
b1 ?"
b1111111111111110 ,
b1111111111111110 g
b1 0
b1000010000000100 2
b110 -
07
b110 4
1?
b100 =
b100 ^
b100 u
b100 -"
b100 9"
b1 ;
b1 ]
b1 h
b1 n
b1 r
b1 t
b1 ,"
b1 3"
b1 5"
b1 8"
b1 ;"
b1 <
b1 :
0/
b1000010000000100 V
b1000010000000100 D
b1000001000000001 L
b1000001000000001 H
b1000001000000001 F
b1000001000000001 J
b1000001000000001 R
b1000001000000001 [
1Z
b1000001000000001 Y
b1000001000000001 T
1O
b1000001000000001 N
1!
#120
0!
#130
b100000010000000 `
b100000010000000 >"
b1101 ="
b1101 D"
b1101 @"
b100 B"
0a
b100 A"
b100 e
b100 ""
b0 d
b0 /"
b1000001000000000 &"
b100000100 }
b100000100 {
0:"
b1 )
b100 (
1$"
b10000000 x
b100 #"
b0 0"
b10000100 y
b1000000000000100 c
b1000000000000100 4"
b111111011111000 b
b111111011111000 6"
b1010 +
b100001000000000 1"
b111111011111000 7"
b100 <"
b100 ?"
b1111111111111011 ,
b1111111111111011 g
b100 0
b1111111110110010 '
b100 $
b1000000000010000 #
b111 *
b1 B
1C
b1010 4
b0 =
b0 ^
b0 u
b0 -"
b0 9"
b100 ;
b100 ]
b100 h
b100 n
b100 r
b100 t
b100 ,"
b100 3"
b100 5"
b100 8"
b100 ;"
b100 <
b10 :
b10001010110010 2
b111 -
b1000010000000100 L
b1000010000000100 H
b1000010000000100 F
b1000010000000100 J
b1000010000000100 R
b1000010000000100 [
b1000010000000100 Y
b1000010000000100 T
b1000010000000100 N
b10001010110010 V
b10001010110010 D
1!
#140
0!
#150
b1111 ="
b1111 D"
b1111 @"
b1 B"
1a
b0 (
b1 A"
b100000010000101 d
b100000010000101 /"
1:"
b1000001010000000 &"
b100000101 }
b100000101 {
b10000010 e
b10000010 ""
b11111110000000 `
b11111110000000 >"
0$"
b10000100 x
b100000010000101 0"
b10000001 y
b10000010 #"
b1000000000000001 c
b1000000000000001 4"
b111111011111110 b
b111111011111110 6"
b0 )
b10000 '
b10000011000001 #
b1000 *
b1111111110111001 +
b100001010000100 1"
b111111011111110 7"
b1 <"
b1 ?"
b10000 ,
b10000 g
b10000 0
b1000000000010000 2
b1000 -
b1111111110111001 4
b0 >
b1011 3
b1011 _
b100 =
b100 ^
b100 u
b100 -"
b100 9"
b1 ;
b1 ]
b1 h
b1 n
b1 r
b1 t
b1 ,"
b1 3"
b1 5"
b1 8"
b1 ;"
b10 <
b1 :
b100 B
b10 A
b0 $
b1000000000010000 V
b1000000000010000 D
b10001010110010 L
b10001010110010 H
b10001010110010 F
1\
b10001010110010 [
b10 X
b10001010110010 Y
b10001010110010 T
b10001010110010 P
0O
b10001010110010 N
1!
#160
0!
#170
b100000110000000 `
b100000110000000 >"
b1011 ="
b1011 D"
b1011 @"
b10001000 ("
b10001000 !"
0a
b10000 A"
b10000 e
b10000 ""
b0 d
b0 /"
b1000100000000000 &"
b100010000 }
b100010000 {
0:"
b10000 (
b10000000 x
b10000 #"
b0 0"
1$"
b10010000 y
b1000000000010000 c
b1000000000010000 4"
b111111011100011 b
b111111011100011 6"
b10000 )
b11000 +
b100100000000000 1"
b111111011100011 7"
b10000 <"
b10000 ?"
b100000110000000 ,
b100000110000000 g
b1111111111000001 '
b1010000000000001 #
b1001 *
b10000 B
b1 A
b11000 4
b10 >
b1 3
b1 _
b0 =
b0 ^
b0 u
b0 -"
b0 9"
b10000 ;
b10000 ]
b10000 h
b10000 n
b10000 r
b10000 t
b10000 ,"
b10000 3"
b10000 5"
b10000 8"
b10000 ;"
b0 <
b0 :
b10000011000001 2
b1001 -
b1000000000010000 L
b1000000000010000 H
b1000000000010000 F
b1000000000010000 J
b1000000000010000 R
0\
b1000000000010000 [
b0 X
b1000000000010000 Y
b1000000000010000 T
1O
b1000000000010000 N
b10000011000001 V
b10000011000001 D
1!
#180
0!
#190
b1001 )"
b10010000 ("
b10010000 !"
b1001000000000000 &"
b100100000 }
b100100000 {
b10010000 e
b10010000 ""
b100000010100010 d
b100000010100010 /"
0$"
b10010000 x
b10010000 #"
b100000010100010 0"
b0 )
b1 '
b0 #
b1010 *
b1111111111001010 +
b101000100000000 1"
b0 ,
b0 g
b0 0
b1010000000000001 2
b1010 -
b1111111111001010 4
b0 >
b1100 3
b1100 _
b10000 =
b10000 ^
b10000 u
b10000 -"
b10000 9"
b1 <
b0 A
b1010000000000001 V
b1010000000000001 D
b10000011000001 L
b10000011000001 H
b10000011000001 F
1\
b10000011000001 [
b10 X
b10000011000001 Y
b10000011000001 T
b10000011000001 P
0O
b10000011000001 N
1!
#200
0!
#210
b0 C"
b1000 )"
b0 B"
b1111 @"
b10001000 ("
b10001000 !"
1a
1&
b0 A"
b0 (
b1000100000000000 &"
b100010000 }
b100010000 {
b0 d
b0 /"
1:"
b10000 ="
b10000 D"
b10000000 y
b10000 e
b10000 ""
b0 0"
b1000000000000000 c
b1000000000000000 4"
b111111100000000 b
b111111100000000 6"
b0 `
b0 >"
b1011 +
b10000 #"
b100100000000000 1"
b111111100000000 7"
b0 <"
b0 ?"
b1111111111111111 ,
b1111111111111111 g
b0 '
b1000010011111100 #
b1011 *
b10000 $
b0 B
15
b1011 4
b10 >
0?
b0 3
b0 _
b0 ;
b0 ]
b0 h
b0 n
b0 r
b0 t
b0 ,"
b0 3"
b0 5"
b0 8"
b0 ;"
1.
11
b0 2
b1011 -
b1010000000000001 L
b1010000000000001 H
1G
b1010000000000001 F
b1010000000000001 J
b1010000000000001 R
0\
b1010000000000001 [
0Z
b1010000000000001 Y
b1010000000000001 T
b1010000000000001 P
b1010000000000001 N
1W
b0 V
b0 D
1!
#220
0!
#230
b10000000 ("
b10000000 !"
0a
b100 )
b1000000000000000 &"
b100000000 }
b100000000 {
0:"
b10000000 x
b0 e
b0 ""
b10001010110010 #
b1100 *
b1111111111111100 '
b0 #"
b100000000000000 1"
0&
0.
01
b1000010011111100 2
b1100 -
17
05
b0 =
b0 ^
b0 u
b0 -"
b0 9"
b0 <
1/
0C
b100 $
0W
b1000010011111100 V
b1000010011111100 D
b0 L
b0 H
0G
b0 F
b0 J
b0 R
b0 [
b0 X
b0 Y
b0 T
b0 P
b0 N
1!
#240
0!
#250
b1 *"
b1 C"
b111 )"
b0 f
b0 k
1j
b0 l
b100 B"
b1111110 ("
b1 '"
1a
1p
0m
b1 |
b1 +"
b1111111111111100 !"
1:"
b100 A"
b1101 @"
0s
b0 x
1z
b111111000000000 &"
b111111000 }
b11111100 {
b1101 ="
b1101 D"
b10000 )
b1111111111111100 (
b11111111 ~
b11111111 w
1$"
b11111100 y
0v
b1111111111111100 e
b1111111111111100 ""
1."
b111111111111100 c
b111111111111100 4"
b1111111100000010 b
b1111111100000010 6"
b1000 +
1%"
b1111111111111100 #"
b111111000000000 1"
b10000000 2"
b1111111100000010 7"
b100 <"
b100 ?"
b1100000010000000 `
b1100000010000000 >"
b1 ,
b1 g
b1111111111111100 0
b1111111110110010 '
b10000 $
b1000000000000001 #
b1101 *
0/
07
b1000 4
1?
b1111 3
b1111 _
b1111111111111100 ;
b1111111111111100 ]
b1111111111111100 h
b1111111111111100 n
b1111111111111100 r
b1111111111111100 t
b1111111111111100 ,"
b1111111111111100 3"
b1111111111111100 5"
b1111111111111100 8"
b1111111111111100 ;"
b1100 <
b10 :
b10001010110010 2
b1101 -
b1000010011111100 L
b1000010011111100 H
b1000010011111100 F
b1000010011111100 J
b1000010011111100 R
b1000010011111100 [
1Z
b1000010011111100 Y
b1000010011111100 T
1O
b1000010011111100 N
b10001010110010 V
b10001010110010 D
1!
#260
0!
#270
b1 C"
b1111111111111100 e
b1111111111111100 ""
b1 B"
0j
b1111111111111100 #"
0a
b1011 ="
b1011 D"
0p
b1111111111111100 !"
0:"
b10000 A"
b1011 @"
b0 (
b1100000010001101 d
b1100000010001101 /"
b1100000010001101 0"
b11111100 x
0$"
b0 y
1z
b1000000000010000 c
b1000000000010000 4"
b111111011100011 b
b111111011100011 6"
b0 )
b1 '
b0 $
b10000011000001 #
b1110 *
b1111111110111111 +
0%"
b1000110111000000 1"
b10000001 2"
b111111011100011 7"
b10000 <"
b10000 ?"
b100000110000000 `
b100000110000000 >"
b0 ,
b0 g
b0 0
b1000000000000001 2
b1110 -
b1111111110111111 4
b0 >
b1011 3
b1011 _
b1111111111111100 =
b1111111111111100 ^
b1111111111111100 u
b1111111111111100 -"
b1111111111111100 9"
b10000 ;
b10000 ]
b10000 h
b10000 n
b10000 r
b10000 t
b10000 ,"
b10000 3"
b10000 5"
b10000 8"
b10000 ;"
b10 <
b1 :
b1111111111111100 B
b10 A
1C
b1000000000000001 V
b1000000000000001 D
b10001010110010 L
b10001010110010 H
b10001010110010 F
1\
b10001010110010 [
b10 X
b10001010110010 Y
b10001010110010 T
b10001010110010 P
0O
b10001010110010 N
1!
#280
0!
#290
b0 |
b0 +"
b0 '"
b10 *"
b1000 )"
b1111 ="
b1111 D"
b1111 @"
b10000000 ("
b10000000 !"
b1 A"
1$"
b10000001 y
b1000000010000000 &"
b100000001 }
b100000001 {
b1 e
b1 ""
b0 d
b0 /"
b11111110000000 `
b11111110000000 >"
b1 ~
b0 w
b10000000 x
1v
0z
b1 #"
0."
b0 0"
b1000000000000001 c
b1000000000000001 4"
b111111011111110 b
b111111011111110 6"
b1 )
b0 (
b1111 +
b10000001 2"
b100000010000000 1"
b111111011111110 7"
b1 <"
b1 ?"
b1111111111111110 ,
b1111111111111110 g
b1 0
b1111111111000001 '
b1010000000000000 #
b1111 *
b0 B
b1 A
b1111 4
b10 >
b0 3
b0 _
b0 =
b0 ^
b0 u
b0 -"
b0 9"
b1 ;
b1 ]
b1 h
b1 n
b1 r
b1 t
b1 ,"
b1 3"
b1 5"
b1 8"
b1 ;"
b1 <
b0 :
b10000011000001 2
b1111 -
b1000000000000001 L
b1000000000000001 H
b1000000000000001 F
b1000000000000001 J
b1000000000000001 R
0\
b1000000000000001 [
b0 X
b1000000000000001 Y
b1000000000000001 T
1O
b1000000000000001 N
b10000011000001 V
b10000011000001 D
1!
#300
0!
#310
b1 (
b0 '
b1000001011111011 #
b10000 *
b1111111111010000 +
b1 ,
b1 g
b1010000000000000 2
b10000 -
b1111111111010000 4
b0 >
b1100 3
b1100 _
b1 B
b0 A
b1010000000000000 V
b1010000000000000 D
b10000011000001 L
b10000011000001 H
b10000011000001 F
1\
b10000011000001 [
b10 X
b10000011000001 Y
b10000011000001 T
b10000011000001 P
0O
b10000011000001 N
1!
#320
0!
#330
b10000001 ("
b10000001 !"
b1000000100000000 &"
b100000010 }
b100000010 {
b10000001 e
b10000001 ""
b100000010000010 d
b100000010000010 /"
b0 )
b0 (
0$"
b10000001 x
b10000001 #"
b100000010000010 0"
b10000 +
b100000100000001 1"
b1111111111111110 ,
b1111111111111110 g
b1111111111111011 '
b10001000110000 #
b10001 *
b0 $
15
b10000 4
b10 >
0?
b0 3
b0 _
b1 =
b1 ^
b1 u
b1 -"
b1 9"
b0 <
b1000001011111011 2
b10001 -
b1010000000000000 L
b1010000000000000 H
1G
b1010000000000000 F
b1010000000000000 J
b1010000000000000 R
0\
b1010000000000000 [
0Z
b1010000000000000 Y
b1010000000000000 T
b1010000000000000 P
b1010000000000000 N
b1000001011111011 V
b1000001011111011 D
1!
#340
0!
#350
b1 *"
b1 C"
b111 )"
b0 f
b0 k
1j
b0 l
b101 B"
b1111101 ("
b1 '"
1a
b1101 ="
b1101 D"
1p
0m
b1 |
b1 +"
b1111111111111011 !"
1:"
b101 A"
b1101 @"
b1 (
b1111111111111011 )
b1111111111111011 e
b1111111111111011 ""
b0 d
b0 /"
0s
1z
b111110110000000 &"
b111110110 }
b11111011 {
b1111111111111011 #"
b0 0"
b11111111 ~
b11111111 w
b0 x
1$"
b11111011 y
0v
1."
b111111111111011 c
b111111111111011 4"
b1111111100000010 b
b1111111100000010 6"
b110000 '
b1000010000000101 #
b10010 *
b1100 +
1%"
b111110110000000 1"
b10000000 2"
b1111111100000010 7"
b101 <"
b101 ?"
b1100000010100000 `
b1100000010100000 >"
b1 ,
b1 g
b1111111111111011 0
b10001000110000 2
b10010 -
05
b1100 4
1?
b1111 3
b1111 _
b0 =
b0 ^
b0 u
b0 -"
b0 9"
b1111111111111011 ;
b1111111111111011 ]
b1111111111111011 h
b1111111111111011 n
b1111111111111011 r
b1111111111111011 t
b1111111111111011 ,"
b1111111111111011 3"
b1111111111111011 5"
b1111111111111011 8"
b1111111111111011 ;"
b1011 <
b1 :
0C
b10001000110000 V
b10001000110000 D
b1000001011111011 L
b1000001011111011 H
0G
b1000001011111011 F
b1000001011111011 J
b1000001011111011 R
b1000001011111011 [
1Z
b0 X
b1000001011111011 Y
b1000001011111011 T
1O
b1000001011111011 N
1!
#360
0!
#370
b1100000001111100 d
b1100000001111100 /"
b0 (
b1100000001111100 0"
b1111111111111100 )
b1000010 +
b111111001111011 1"
b101 ,
b101 g
b101 0
b101 '
b1111111111111100 $
b10001011000010 #
b10011 *
b1111111111111011 B
b1 A
1C
b1000010 4
b0 >
b11 3
b11 _
b1 =
b1 ^
b1 u
b1 -"
b1 9"
b0 <
b1000010000000101 2
b10011 -
b10001000110000 L
b10001000110000 H
b10001000110000 F
1\
b10001000110000 [
b10 X
b10001000110000 Y
b10001000110000 T
b10001000110000 P
0O
b10001000110000 N
b1000010000000101 V
b1000010000000101 D
1!
#380
0!
#390
b0 |
b0 +"
b0 '"
b10 *"
b1 C"
b1000 )"
b101 B"
0j
b10000010 ("
0a
b1101 ="
b1101 D"
0p
b10000010 !"
0:"
b101 A"
b1101 @"
b101 (
b101 e
b101 ""
b0 d
b0 /"
b1000001010000000 &"
b100000101 }
b100000101 {
b101 #"
b0 0"
b10000000 x
b1 ~
b0 w
1$"
b10000101 y
1v
0z
0."
b1000000000000101 c
b1000000000000101 4"
b111111011110110 b
b111111011110110 6"
b101 )
b1111111111000010 '
b1111111111111011 $
b1010001000000001 #
b10100 *
b11000 +
0%"
b100001010000000 1"
b10000001 2"
b111111011110110 7"
b101 <"
b101 ?"
b100000010100000 `
b100000010100000 >"
b1111111111111010 ,
b1111111111111010 g
b10001011000010 2
b10100 -
b11000 4
b10 >
b0 3
b0 _
b0 =
b0 ^
b0 u
b0 -"
b0 9"
b101 ;
b101 ]
b101 h
b101 n
b101 r
b101 t
b101 ,"
b101 3"
b101 5"
b101 8"
b101 ;"
b101 <
b10 :
b101 B
b10001011000010 V
b10001011000010 D
b1000010000000101 L
b1000010000000101 H
b1000010000000101 F
b1000010000000101 J
b1000010000000101 R
0\
b1000010000000101 [
b0 X
b1000010000000101 Y
b1000010000000101 T
1O
b1000010000000101 N
1!
#400
0!
#410
b10000101 ("
b10000101 !"
b1000010100000000 &"
b100001010 }
b100001010 {
b10000101 e
b10000101 ""
b100000010001010 d
b100000010001010 /"
0$"
b10000101 x
b10000101 #"
b100000010001010 0"
b0 (
b0 )
b1111111111010110 +
b100010100011001 1"
b0 ,
b0 g
b0 0
b1 '
b0 #
b10101 *
b101 $
b10 A
b1111111111010110 4
b0 >
b1100 3
b1100 _
b101 =
b101 ^
b101 u
b101 -"
b101 9"
b10 <
b1 :
b1010001000000001 2
b10101 -
b10001011000010 L
b10001011000010 H
b10001011000010 F
1\
b10001011000010 [
b10 X
b10001011000010 Y
b10001011000010 T
b10001011000010 P
0O
b10001011000010 N
b1010001000000001 V
b1010001000000001 D
1!
#420
0!
#430
b0 C"
b1111 @"
b0 B"
b10000000 ("
b10000000 !"
b1 )
b1 (
1&
b0 A"
b1000000000000000 &"
b100000000 }
b100000000 {
b0 d
b0 /"
b10000 ="
b10000 D"
b10000000 x
b10000000 y
b0 e
b0 ""
b0 0"
b1000000000000000 c
b1000000000000000 4"
b111111100000000 b
b111111100000000 6"
b0 `
b0 >"
b0 '
b1 $
b10001000000000 #
b10110 *
b10110 +
b0 #"
b100000000000000 1"
b111111100000000 7"
b0 <"
b0 ?"
b1111111111111111 ,
b1111111111111111 g
1.
11
b0 2
b10110 -
15
b10110 4
b10 >
0?
b0 3
b0 _
b0 =
b0 ^
b0 u
b0 -"
b0 9"
b0 ;
b0 ]
b0 h
b0 n
b0 r
b0 t
b0 ,"
b0 3"
b0 5"
b0 8"
b0 ;"
b1 <
b0 B
b1 A
1W
b0 V
b0 D
b1010001000000001 L
b1010001000000001 H
1G
b1010001000000001 F
b1010001000000001 J
b1010001000000001 R
0\
b1010001000000001 [
0Z
b1010001000000001 Y
b1010001000000001 T
b1010001000000001 P
b1010001000000001 N
1!
#440
0!
#450
b1 C"
b1 B"
b10000001 ("
b10000001 !"
b1 A"
b1000000100000000 &"
b100000010 }
b100000010 {
b100000010000010 d
b100000010000010 /"
b1111 ="
b1111 D"
b0 )
b1000010011111111 #
b10111 *
b10000001 x
0$"
b10000001 y
b10000001 e
b10000001 ""
b100000010000010 0"
b1000000000000001 c
b1000000000000001 4"
b111111011111110 b
b111111011111110 6"
b11111110000000 `
b11111110000000 >"
0&
b10000001 #"
b100000100000001 1"
b111111011111110 7"
b1 <"
b1 ?"
b1111111111111110 ,
b1111111111111110 g
b1 0
b0 $
1/
0C
17
05
b1 =
b1 ^
b1 u
b1 -"
b1 9"
b1 ;
b1 ]
b1 h
b1 n
b1 r
b1 t
b1 ,"
b1 3"
b1 5"
b1 8"
b1 ;"
b0 <
b0 :
0.
01
b10001000000000 2
b10111 -
b0 L
b0 H
0G
b0 F
b0 J
b0 R
b0 [
b0 X
b0 Y
b0 T
b0 P
b0 N
0W
b10001000000000 V
b10001000000000 D
1!
#460
0!
